\relax 
\bbl@cs{beforestart}
\catcode `:\active 
\catcode `;\active 
\catcode `!\active 
\catcode `?\active 
\babel@aux{french}{}
\@writefile{toc}{\contentsline {section}{\numberline {1}La m\'ethode des rectangles}{3}\protected@file@percent }
\providecommand*\caption@xref[2]{\@setref\relax\@undefined{#1}}
\newlabel{trap_1}{{1a}{3}}
\newlabel{sub@trap_1}{{(a)}{a}}
\newlabel{trap_2}{{1b}{3}}
\newlabel{sub@trap_2}{{(b)}{b}}
\@writefile{lof}{\contentsline {figure}{\numberline {1}{\ignorespaces \relax }}{3}\protected@file@percent }
\@writefile{lof}{\contentsline {subfigure}{\numberline{(a)}{\ignorespaces {Un trap\`eze}}}{3}\protected@file@percent }
\@writefile{lof}{\contentsline {subfigure}{\numberline{(b)}{\ignorespaces {Un trap\`eze recouvert de triangles}}}{3}\protected@file@percent }
\@writefile{toc}{\contentsline {section}{\numberline {2}Vers l'int\'egrale}{4}\protected@file@percent }
\@writefile{lof}{\contentsline {figure}{\numberline {2}{\ignorespaces Une fonction\relax }}{4}\protected@file@percent }
\newlabel{fonct_ale}{{2}{4}}
\@writefile{toc}{\contentsline {section}{\numberline {3}Exemples de calculs d'aires}{4}\protected@file@percent }
